{
    "a01880": {
        "alt": 0,
        "callsign": "AAL1379 ",
        "curviness": 0.0,
        "icao": "a01880",
        "geom-alt": null,
        "history": [
            {
                "alt": 0,
                "gnd?": true,
                "lat": 33.940075,
                "lon": -118.40623,
                "time": 1638880272855
            },
            {
                "alt": 0,
                "gnd?": true,
                "lat": 33.940086,
                "lon": -118.406244,
                "time": 1638880288955
            },
            {
                "alt": 0,
                "gnd?": true,
                "lat": 33.940086,
                "lon": -118.406244,
                "time": 1638880303002
            }
        ],
        "military?": false,
        "gnd?": false,
        "lat": 33.946163,
        "lon": -118.427727,
        "normalized-curviness": null,
        "squawk": "3503",
        "registration": "N105NN",
        "postime": "2021-12-07T07:21:02.473018Z",
        "started-circling-time": null,
        "ended-circling-time": null,
        "speed": 0.0
    }
}
